Particulier,Papiers / Citoyenneté,Acte de naissance,Publik,oui,Formulaire,file-text-o,"Copie intégrale, avec ou sans filiation",FALSE,https://teleservices.moncompte.orleans-metropole.fr/etat-civil-cimetiere/demande-d-actes-detat-civil-naissance-mariage-ou-deces/?f2=NAI
Particulier,Papiers / Citoyenneté,Acte de mariage,Publik,oui,Formulaire,file-text-o,"Copie intégrale, avec ou sans filiation",FALSE,https://teleservices.moncompte.orleans-metropole.fr/etat-civil-cimetiere/demande-d-actes-detat-civil-naissance-mariage-ou-deces/?f2=MAR
Particulier,Papiers / Citoyenneté,Acte de décès,Publik,oui,Formulaire,file-text-o,"Copie intégrale, avec ou sans filiation",FALSE,https://teleservices.moncompte.orleans-metropole.fr/etat-civil-cimetiere/demande-d-actes-detat-civil-naissance-mariage-ou-deces/?f2=DEC
Particulier,Papiers / Citoyenneté,Information - passeport ,Om,oui,Page,file-text-o,,FALSE,http://www.orleans-metropole.fr/1582/information-passeport.htm
Particulier,Papiers / Citoyenneté,Information - carte nationale d'identité,Om,oui,Page,file-text-o,,FALSE,http://www.orleans-metropole.fr/1583/information-carte-nationale-didentite.htm
Particulier,Papiers / Citoyenneté,Contacter service état-civil - citoyenneté,Om,oui,Formulaire,file-text-o,Pour le dépôt de dossier(s) de carte d'identité et/ou passeport,FALSE,http://www.orleans-metropole.fr/508/contacter-service-etat-civil-citoyennete.htm
Particulier,Papiers / Citoyenneté,Prise de rendez-vous,Publik,oui,Formulaire,file-text-o,,FALSE,https://teleservices.moncompte.orleans-metropole.fr/affaires-generales/RDV_CNI_PASS/
Particulier,Papiers / Citoyenneté,Demande de livret de famille,Publik,oui,Formulaire,file-text-o,,FALSE,https://teleservices.moncompte.orleans-metropole.fr/etat-civil-cimetiere/demande-de-livret-de-famille/
Particulier,Interventions,Demande d'arrêté de circulation,Om,oui,Formulaire,road,"Pour des travaux, un déménagement",FALSE,http://www.orleans-metropole.fr/1210/demande-darrete-de-circulation-travaux-demenagement.htm
Particulier,Interventions,Demande de prolongation d'un acte en vigueur,Om,oui,Formulaire,road,,FALSE,http://www.orleans-metropole.fr/1531/demande-de-prolongation-dun-acte-en-vigueur.htm
Particulier,Interventions,Eclairage,Om,oui,Formulaire,road,,FALSE,http://www.orleans-metropole.fr/510/eclairage.htm
Particulier,Interventions,Voirie dégradée,Om,oui,Formulaire,road,,FALSE,http://www.orleans-metropole.fr/513/voirie-degradee.htm
Particulier,Interventions,Mobilier urbain dégradé,Om,oui,Formulaire,road,,FALSE,http://www.orleans-metropole.fr/514/mobilier-urbain-degrade.htm
Particulier,Interventions,Signalisation,Om,oui,Formulaire,road,,FALSE,http://www.orleans-metropole.fr/515/signalisation.htm
Particulier,Interventions,Espaces verts,Om,oui,Formulaire,road,,FALSE,http://www.orleans-metropole.fr/517/espaces-verts.htm
Particulier,Interventions,Autre demande,Om,oui,Formulaire,road,,FALSE,http://www.orleans-metropole.fr/518/autre-demande.htm
Particulier,Déchets / Propreté,Demande de bac : les collectes s’ajustent,Om,oui,Formulaire,trash,,FALSE,http://www.orleans-metropole.fr/1449/demande-de-bac-les-collectes-sajustent.htm
Particulier,Déchets / Propreté,Réparation de bac,Om,oui,Formulaire,trash,,FALSE,http://www.orleans-metropole.fr/1450/reparation-de-bac.htm
Particulier,Déchets / Propreté,Livraison de bacs pour les nouveaux arrivants,Om,oui,Formulaire,trash,,FALSE,http://www.orleans-metropole.fr/1479/livraison-de-bacs-pour-les-nouveaux-arrivants.htm
Particulier,Déchets / Propreté,Demande de carte pour déposer de l’amiante lié en déchetterie,Om,oui,Formulaire,trash,,FALSE,http://www.orleans-metropole.fr/1452/demande-de-carte-pour-deposer-de-lamiante-lie-en-dechetterie.htm
Particulier,Déchets / Propreté,Carte déchetterie : changement de domiciliation,Om,oui,Formulaire,trash,,FALSE,http://www.orleans-metropole.fr/1654/carte-dechetterie-changement-de-domiciliation.htm
Particulier,Déchets / Propreté,Demande de carte pour retirer du compost en déchetterie,Om,oui,Formulaire,trash,,FALSE,http://www.orleans-metropole.fr/1457/demande-de-carte-pour-retirer-du-compost-en-dechetterie.htm
Particulier,Déchets / Propreté,Collecte des encombrants à la demande,Om,oui,Formulaire,trash,,FALSE,http://www.orleans-metropole.fr/form/collecte-des-encombrants-sur-app
Particulier,Déchets / Propreté,Autre demande,Om,oui,Formulaire,trash,,FALSE,http://www.orleans-metropole.fr/511/autre-demande.htm
Particulier,Déchets / Propreté,Collecte de végétaux,Publik,oui,Formulaire,trash,Collecte à domicile pour les végétaux,FALSE,https://teleservices.moncompte.orleans-metropole.fr/gestion-des-dechets/dechets-vert/
Particulier,Déchets / Propreté,Distribution de broyat,Publik,oui,Formulaire,trash,,FALSE,https://teleservices.moncompte.orleans-metropole.fr/gestion-des-dechets/distribution-de-broyat/
Particulier,Déchets / Propreté,J'adopte un composteur,Publik,oui,Formulaire,trash,,FALSE,https://teleservices.moncompte.orleans-metropole.fr/gestion-des-dechets/j-adopte-un-composteur/
Particulier,Logement,Demande d'information logement social,Om,oui,Formulaire,home,,FALSE,http://www.orleans-metropole.fr/815/demande-dinformation-logement-social.htm
Particulier,Logement,Demande de réglementation d'urbanisme,Om,oui,Formulaire,home,,FALSE,http://www.orleans-metropole.fr/816/demande-de-reglementation-durbanisme.htm
Particulier,Petite enfance,Réservation en halte-garderie,Portail Famille,oui,Formulaire,child,,TRUE,https://www.espace-citoyens.net/orleans/espace-citoyens/DemandeEnfance/NouvelleDemandeBulletinInscription?IdDynamic=4&IdBulletin=38
Particulier,Petite enfance,Contacter le point accueil petite enfance,Om,oui,Formulaire,child,,FALSE,http://www.orleans-metropole.fr/1569/nous-contacter.htm
Particulier,Petite enfance,Rendez-vous pour déposer un dossier d'inscription en crèche,Portail Famille,oui,Formulaire,child,,TRUE,https://www.espace-citoyens.net/orleans/espace-citoyens/DemandeEnfance/NouvelleDemandeBulletinInscription?IdDynamic=3&IdBulletin=90
Particulier,Petite enfance,Inscription en crèche,Portail Famille,oui,Formulaire,child,,TRUE,https://www.espace-citoyens.net/orleans/espace-citoyens/DemandeEnfance/NouvelleDemandeBulletinInscription?IdDynamic=3&IdBulletin=58
Particulier,Petite enfance,Contacter le service petite enfance,Portail Famille,oui,Formulaire,child,,TRUE,https://www.espace-citoyens.net/orleans/espace-citoyens/DemandeEnfance/NouvelleDemandeGenerique/CONCERTO/LB_CONTACT
Particulier,Petite enfance,Accueil d'urgence,Publik,oui,Formulaire,child,,FALSE,https://moncompte.orleans-metropole.fr/creches/
Particulier,Ecole,Inscription en école élémentaire,Portail Famille,oui,Formulaire,graduation-cap,,TRUE,https://www.espace-citoyens.net/orleans/espace-citoyens/DemandeEnfance/NouvelleDemandeBulletinInscription?IdDynamic=3&IdBulletin=125
Particulier,Ecole,Inscription en école maternelle,Portail Famille,oui,Formulaire,graduation-cap,,TRUE,https://www.espace-citoyens.net/orleans/espace-citoyens/DemandeEnfance/NouvelleDemandeBulletinInscription?IdDynamic=4&IdBulletin=126
Particulier,Ecole,Contacter le service des inscriptions scolaires,Portail Famille,oui,Formulaire,graduation-cap,,TRUE,https://www.espace-citoyens.net/orleans/espace-citoyens/DemandeEnfance/NouvelleDemandeGenerique/CONCERTO/D_ECOLES
Particulier,Ecole,Contacter le service facturation de la restauration scolaire,Portail Famille,oui,Formulaire,graduation-cap,,TRUE,https://www.espace-citoyens.net/orleans/espace-citoyens/DemandeEnfance/NouvelleDemandeGenerique/CONCERTO/D_SOGERES
Particulier,Ecole,Contacter le service périscolaire et ateliers ludo éducatifs,Portail Famille,oui,Formulaire,graduation-cap,,TRUE,https://www.espace-citoyens.net/orleans/espace-citoyens/DemandeEnfance/NouvelleDemandeGenerique/CONCERTO/FCONTACTPE
Particulier,Ecole,Demande de quotient familial,Portail Famille,oui,Formulaire,graduation-cap,,TRUE,https://www.espace-citoyens.net/orleans/espace-citoyens/DemandeEnfance/NouvelleDemandeGenerique/CONCERTO/LB_CHGMTRE
Particlier,Ecole,Signaler un changement de ressource,Portail Famille,oui,Formulaire,graduation-cap,,TRUE,https://www.espace-citoyens.net/orleans/espace-citoyens/DemandeEnfance/NouvelleDemandeGenerique/CONCERTO/LB_CHGMTRE
Particulier,Ecole,Signaler un changement dans ma famille,Portail Famille,oui,Formulaire,graduation-cap,,TRUE,https://www.espace-citoyens.net/orleans/espace-citoyens/DemandeEnfance/NouvelleDemandeGenerique/CONCERTO/D_SIG
Particulier,Loisirs,Pré-inscription à l'école municipale de sport (EMIS),Portail Famille,oui,Formulaire,ellipsis-v,,TRUE,https://www.espace-citoyens.net/orleans/espace-citoyens/DemandeEnfance/NouvelleDemandeBulletinInscription?IdDynamic=3&IdBulletin=97
Particulier,Loisirs,Contacter le service animation sportive,Portail Famille,oui,Formulaire,ellipsis-v,,TRUE,https://www.espace-citoyens.net/orleans/espace-citoyens/DemandeEnfance/NouvelleDemandeGenerique/CONCERTO/D_SPORT
Particulier,Loisirs,Conservatoire,Externe,oui,Formulaire,ellipsis-v,,TRUE,https://www.imuse-orleansmetropole.fr/extranet/login/usa_index_famille.php
Particulier,Loisirs,Pré-inscription à Orléans Vous Coach,Portail Famille,oui,Formulaire,ellipsis-v,,TRUE,https://www.espace-citoyens.net/orleans/espace-citoyens/DemandeEnfance/NouvelleDemandeBulletinInscription?IdDynamic=2&IdBulletin=98
Particulier,Loisirs,Contacter les médiathèques d'Orléans,Externe,oui,Formulaire,ellipsis-v,,FALSE,https://mediatheques.orleans-metropole.fr/pratique/contact
Particulier,Loisirs,Rechercher dans le catalogue des médiatèque d'Orléans,Externe,oui,Page,ellipsis-v,,FALSE,https://mediatheques.orleans-metropole.fr/advancedsearch/:new
Association,Vie associative,Contacter le service vie associative,Om,oui,Formulaire,users,,FALSE,http://www.orleans-metropole.fr/1521/demande-de-renseignement-touristique.htm
Association,Vie associative,Location de salle,Publik,non,Page,users,,TRUE,#
Association,Vie associative,Proposer une événement dans l'agenda Orléans Métropole,Open Agenda,oui,Formulaire,users,,TRUE,https://openagenda.com/orleans-metropole/signin
Association/Particulier,Vie associative,Demande de débit de boissons temporaire,Publik,oui,Formulaire,users,,FALSE,https://teleservices.moncompte.orleans-metropole.fr/affaires-generales/debit-de-boissons-temporaire/
Commerce,Commerce,"Materiel supportant de la publicité, une préenseigne ou une enseigne",Om,oui,Cerfa,credit-card,,FALSE,#
Particulier,Tourisme,Déclaration d'un meublé de tourisme,Publik,oui,Formulaire,sun-o,,FALSE,https://teleservices.moncompte.orleans-metropole.fr/affaires-generales/meuble-de-tourisme/
Particulier,Tourisme,Demande de renseignement touristique,Om,oui,Formulaire,sun-o,,FALSE,http://www.orleans-metropole.fr/1521/demande-de-renseignement-touristique.htm
Particulier,Alertes,"Risques majeurs, soyez alertés",Externe,oui,Formulaire,exclamation-triangle,,FALSE,https://www.acces-gedicom.com/Subscriptions/?CustId=588
Particulier,Alertes,Travaux dans votre quartier,Externe,oui,Formulaire,exclamation-triangle,,FALSE,https://www.acces-gedicom.com/Subscriptions/?CustId=588
Particulier,Déplacements,Contacter le point accueil stationnement,Externe,oui,Formulaire,bus,,FALSE,https://www.stationnement-orleans.fr/nous-contacter
Particulier,Emploi,Déposer une candidature spontanée,Om,oui,Formulaire,briefcase,"Pour un stage, un emploi, une alternance",FALSE,https://mairie-orleans.profilsearch.com/recrute/internet/fo_form_cand.php
Particulier,Emploi,Consulter les offres en cours,Om,oui,Page,briefcase,De la Ville et de la Métropole d'Orléans,FALSE,https://mairie-orleans.profilsearch.com/recrute/internet/fo_annonce_lister.php
Particulier,Logement,Autorisations d'urbanisme,Om,oui,Page,home,"Permis de construire, demande préalable de travaux...",FALSE,http://www.orleans-metropole.fr/1708/autorisations-durbanisme-sur-orleans.htm
Particulier,Ecoles,Portail famille,Portail Famille,oui,Page,graduation-cap,,TRUE,https://moncompte.orleans-metropole.fr
Particulier,Petite enfance,Portail famille,Portail Famille,oui,Page,child,,TRUE,https://moncompte.orleans-metropole.fr
Particulier,Loisirs,Portail famille,Portail Famille,oui,Page,ellipsis-v,,TRUE,https://moncompte.orleans-metropole.fr
Particulier,Déplacements,Acheter un titre de transport - réseau TAO,Externe,oui,Page,bus,,TRUE,https://vad.keolis.com/tao-orleans/
Particulier,Déplacements,Recherche d'itinéraire - J'y vais malin,Externe,oui,Page,bus,"Bus, train, tram, vélo ...",FALSE,http://www.jvmalin.fr/
Particulier,Tourisme,Billetterie de l'office du tourisme,Externe,Oui,Page,sun-o,Visitez les plus beaux sites de la région d'Orléans Métropole,TRUE,https://reservation.tourisme-orleansmetropole.com/